^D:\LABA\PROGRAMMING\LABA14CORRECTED\LABA14CORRECTED\DEBUG\MAIN-1.OBJ|D:\LABA\PROGRAMMING\LABA14CORRECTED\LABA14CORRECTED\DEBUG\MAIN-2.OBJ|D:\LABA\PROGRAMMING\LABA14CORRECTED\LABA14CORRECTED\DEBUG\MAIN.OBJ
D:\LABA\PROGRAMMING\LABA14CORRECTED\DEBUG\LABA14CORRECTED.EXE
D:\LABA\PROGRAMMING\LABA14CORRECTED\DEBUG\LABA14CORRECTED.ILK
D:\LABA\PROGRAMMING\LABA14CORRECTED\DEBUG\LABA14CORRECTED.PDB
