^D:\LABA\PROGRAMMING\LABA14CORRECTED\LABA14CORRECTED\MAIN-1.CPP|D:\LABA\PROGRAMMING\LABA14CORRECTED\LABA14CORRECTED\MAIN-2.CPP
D:\LABA\PROGRAMMING\LABA14CORRECTED\LABA14CORRECTED\DEBUG\VC142.PDB
D:\LABA\PROGRAMMING\LABA14CORRECTED\LABA14CORRECTED\DEBUG\VC142.IDB
D:\LABA\PROGRAMMING\LABA14CORRECTED\LABA14CORRECTED\DEBUG\MAIN-2.OBJ
D:\LABA\PROGRAMMING\LABA14CORRECTED\LABA14CORRECTED\DEBUG\MAIN-1.OBJ
^D:\LABA\PROGRAMMING\LABA14CORRECTED\LABA14CORRECTED\MAIN-1.CPP|D:\LABA\PROGRAMMING\LABA14CORRECTED\LABA14CORRECTED\MAIN-2.CPP|D:\LABA\PROGRAMMING\LABA14CORRECTED\LABA14CORRECTED\MAIN.CPP
D:\LABA\PROGRAMMING\LABA14CORRECTED\LABA14CORRECTED\DEBUG\VC142.PDB
D:\LABA\PROGRAMMING\LABA14CORRECTED\LABA14CORRECTED\DEBUG\VC142.IDB
D:\LABA\PROGRAMMING\LABA14CORRECTED\LABA14CORRECTED\DEBUG\MAIN.OBJ
D:\LABA\PROGRAMMING\LABA14CORRECTED\LABA14CORRECTED\DEBUG\MAIN-2.OBJ
D:\LABA\PROGRAMMING\LABA14CORRECTED\LABA14CORRECTED\DEBUG\MAIN-1.OBJ
^D:\LABA\PROGRAMMING\LABA14CORRECTED\LABA14CORRECTED\MAIN-1.CPP
D:\LABA\PROGRAMMING\LABA14CORRECTED\LABA14CORRECTED\DEBUG\VC142.PDB
^D:\LABA\PROGRAMMING\LABA14CORRECTED\LABA14CORRECTED\MAIN.CPP
D:\LABA\PROGRAMMING\LABA14CORRECTED\LABA14CORRECTED\DEBUG\VC142.PDB
^D:\LABA\PROGRAMMING\LABA14CORRECTED\LABA14CORRECTED\MAIN-2.CPP
D:\LABA\PROGRAMMING\LABA14CORRECTED\LABA14CORRECTED\DEBUG\VC142.PDB
D:\LABA\PROGRAMMING\LABA14CORRECTED\LABA14CORRECTED\DEBUG\VC142.IDB
D:\LABA\PROGRAMMING\LABA14CORRECTED\LABA14CORRECTED\DEBUG\MAIN-2.OBJ
